…
#### `group_by()` examples

Group `iris` by species

``` r
group_by(iris, Species)
```

When you execute the command above, you’ll see that the object is not
anymore `data.frame`, but now it’s called `tibble` and you’ll find
information about grouping added, though no information in the table was
altered:

    ## # A tibble: 150 x 5
    ## # Groups:   Species [3]
    ##    Sepal.Length Sepal.Width Petal.Length Petal.Width Species
    ##           <dbl>       <dbl>        <dbl>       <dbl> <fct>  
    ##  1          5.1         3.5          1.4         0.2 setosa 
    ##  2          4.9         3            1.4         0.2 setosa 
    ##  3          4.7         3.2          1.3         0.2 setosa 
    ##  4          4.6         3.1          1.5         0.2 setosa 
    ##  5          5           3.6          1.4         0.2 setosa 
    ##  6          5.4         3.9          1.7         0.4 setosa 
    ##  7          4.6         3.4          1.4         0.3 setosa 
    ##  8          5           3.4          1.5         0.2 setosa 
    ##  9          4.4         2.9          1.4         0.2 setosa 
    ## 10          4.9         3.1          1.5         0.1 setosa 
    ## # ... with 140 more rows
…
Before we move on, we’ll show a useful technique that allows, for
example, easy standardization. Our task is to standardize the values of
sepal length by subtracting each from the species mean and dividing the
result by the species standard deviation (this is called
Z-standardization). Here’s the code:

``` r
iris %>% select(Species, Sepal.Length) %>%  group_by(Species) %>%
  mutate(sp.Mean = mean(Sepal.Length),
         sp.SD = sd(Sepal.Length),
         Zstand.Sepal.Length = (Sepal.Length - sp.Mean)/sp.SD)
```

    ## # A tibble: 150 x 5
    ## # Groups:   Species [3]
    ##    Species Sepal.Length sp.Mean sp.SD Zstand.Sepal.Length
    ##    <fct>          <dbl>   <dbl> <dbl>               <dbl>
    ##  1 setosa           5.1    5.01 0.352              0.267 
    ##  2 setosa           4.9    5.01 0.352             -0.301 
    ##  3 setosa           4.7    5.01 0.352             -0.868 
    ##  4 setosa           4.6    5.01 0.352             -1.15  
    ##  5 setosa           5      5.01 0.352             -0.0170
    ##  6 setosa           5.4    5.01 0.352              1.12  
    ##  7 setosa           4.6    5.01 0.352             -1.15  
    ##  8 setosa           5      5.01 0.352             -0.0170
    ##  9 setosa           4.4    5.01 0.352             -1.72  
    ## 10 setosa           4.9    5.01 0.352             -0.301 
    ## # ... with 140 more rows

we could use `select()` again to drop the intermediate variables we no
longer need:

``` r
iris %>% select(Species, Sepal.Length) %>%  group_by(Species) %>%
  mutate(sp.Mean = mean(Sepal.Length),
         sp.SD = sd(Sepal.Length),
         Zstand.Sepal.Length = (Sepal.Length - sp.Mean)/sp.SD) %>% select(-c(sp.Mean, sp.SD))
```

    ## # A tibble: 150 x 3
    ## # Groups:   Species [3]
    ##    Species Sepal.Length Zstand.Sepal.Length
    ##    <fct>          <dbl>               <dbl>
    ##  1 setosa           5.1              0.267 
    ##  2 setosa           4.9             -0.301 
    ##  3 setosa           4.7             -0.868 
    ##  4 setosa           4.6             -1.15  
    ##  5 setosa           5               -0.0170
    ##  6 setosa           5.4              1.12  
    ##  7 setosa           4.6             -1.15  
    ##  8 setosa           5               -0.0170
    ##  9 setosa           4.4             -1.72  
    ## 10 setosa           4.9             -0.301 
    ## # ... with 140 more rows
…
We’re done now! But, perhaps, you’d like to have a single table with all
your summaries, so that the species summary is below the list of
populations of each species for the ease of inspection.

-   **Combine the two result data frames into one**

``` r
sum_sum <- pop_sum %>% bind_rows(spec_sum) 
sum_sum
```

    ## # A tibble: 126 x 6
    ## # Groups:   locality [122]
    ##    locality      species      n_ind n_all mean_n_all_ind n_pop
    ##    <chr>         <chr>        <int> <int>          <dbl> <int>
    ##  1 Abanta Gölu   anatolicus       2    29           18      NA
    ##  2 Adapazari     anatolicus       3    36           19.3    NA
    ##  3 Aghios Kosmas ivanbureschi     2    19           16      NA
    ##  4 Alepu         ivanbureschi     3    32           24      NA
    ##  5 Alexandrovo   ivanbureschi     2    22           17.5    NA
    ##  6 Alibahadir2   anatolicus       2    32           20.5    NA
    ##  7 Alistrati     ivanbureschi     2    29           18      NA
    ##  8 Ano Kalliniki macedonicus      2    17           16      NA
    ##  9 Aranđelovac   ivanbureschi     3    25           15      NA
    ## 10 Avdancik      anatolicus       3    37           20.3    NA
    ## # ... with 116 more rows
…
Now, we’ll make use of the fact that `NA` values are put at the end of a
column sorted with `arrange()`, to place summary for each species under
the summaries of its populations:

``` r
sum_sum <- sum_sum %>% arrange(species, locality)
sum_sum
```

    ## # A tibble: 126 x 6
    ## # Groups:   locality [122]
    ##    locality    species    n_ind n_all mean_n_all_ind n_pop
    ##    <chr>       <chr>      <int> <int>          <dbl> <int>
    ##  1 Abanta Gölu anatolicus     2    29           18      NA
    ##  2 Adapazari   anatolicus     3    36           19.3    NA
    ##  3 Alibahadir2 anatolicus     2    32           20.5    NA
    ##  4 Avdancik    anatolicus     3    37           20.3    NA
    ##  5 Çakirli     anatolicus     3    33           18      NA
    ##  6 Çibanköy    anatolicus     3    28           16.7    NA
    ##  7 Gölköy      anatolicus     3    25           17      NA
    ##  8 Gürbulak    anatolicus     2    24           17      NA
    ##  9 Hanköy      anatolicus     3    40           19.7    NA
    ## 10 Karakoç     anatolicus     3    42           22.3    NA
    ## # ... with 116 more rows

And finally, we’d like to replace `NA` in the `Locality` column with the
word “Overall”

``` r
sum_sum <- sum_sum %>% 
  mutate(locality = ifelse(is.na(locality), "Overall", locality))
sum_sum
```

    ## # A tibble: 126 x 6
    ## # Groups:   locality [122]
    ##    locality    species    n_ind n_all mean_n_all_ind n_pop
    ##    <chr>       <chr>      <int> <int>          <dbl> <int>
    ##  1 Abanta Gölu anatolicus     2    29           18      NA
    ##  2 Adapazari   anatolicus     3    36           19.3    NA
    ##  3 Alibahadir2 anatolicus     2    32           20.5    NA
    ##  4 Avdancik    anatolicus     3    37           20.3    NA
    ##  5 Çakirli     anatolicus     3    33           18      NA
    ##  6 Çibanköy    anatolicus     3    28           16.7    NA
    ##  7 Gölköy      anatolicus     3    25           17      NA
    ##  8 Gürbulak    anatolicus     2    24           17      NA
    ##  9 Hanköy      anatolicus     3    40           19.7    NA
    ## 10 Karakoç     anatolicus     3    42           22.3    NA
    ## # ... with 116 more rows
…
