…
#### `group_by()` examples

Create grouped `iris` dataframe

``` r
group_by(iris, Species)
```

When you execute the command above, you’ll see that the object is not
anymore `data.frame`, but now it’s called `tibble` and you’ll find
information about grouping added, though no information in the table is
altered:

    ## # A tibble: 150 x 5
    ## # Groups:   Species [3]
    ##    Sepal.Length Sepal.Width Petal.Length Petal.Width Species
    ##           <dbl>       <dbl>        <dbl>       <dbl> <fct>  
    ##  1          5.1         3.5          1.4         0.2 setosa 
    ##  2          4.9         3            1.4         0.2 setosa 
    ##  3          4.7         3.2          1.3         0.2 setosa 
    ##  4          4.6         3.1          1.5         0.2 setosa 
    ##  5          5           3.6          1.4         0.2 setosa 
    ##  6          5.4         3.9          1.7         0.4 setosa 
    ##  7          4.6         3.4          1.4         0.3 setosa 
    ##  8          5           3.4          1.5         0.2 setosa 
    ##  9          4.4         2.9          1.4         0.2 setosa 
    ## 10          4.9         3.1          1.5         0.1 setosa 
    ## # ... with 140 more rows
…
Before we move on, we’ll show a useful technique that allows, for
example, easy standardization. Our task is to standardize the values of
sepal length by subtracting it from the species mean and dividing the
result by the species standard deviation (this is called
**Z-standardization**). Here’s the code:

``` r
iris %>% select(Species, Sepal.Length) %>%  group_by(Species) %>%
  mutate(sp.Mean = mean(Sepal.Length),
         sp.SD = sd(Sepal.Length),
         Zstand.Sepal.Length = (Sepal.Length - sp.Mean)/sp.SD)
```

    ## # A tibble: 150 x 5
    ## # Groups:   Species [3]
    ##    Species Sepal.Length sp.Mean sp.SD Zstand.Sepal.Length
    ##    <fct>          <dbl>   <dbl> <dbl>               <dbl>
    ##  1 setosa           5.1    5.01 0.352              0.267 
    ##  2 setosa           4.9    5.01 0.352             -0.301 
    ##  3 setosa           4.7    5.01 0.352             -0.868 
    ##  4 setosa           4.6    5.01 0.352             -1.15  
    ##  5 setosa           5      5.01 0.352             -0.0170
    ##  6 setosa           5.4    5.01 0.352              1.12  
    ##  7 setosa           4.6    5.01 0.352             -1.15  
    ##  8 setosa           5      5.01 0.352             -0.0170
    ##  9 setosa           4.4    5.01 0.352             -1.72  
    ## 10 setosa           4.9    5.01 0.352             -0.301 
    ## # ... with 140 more rows

we could use `select()` again to drop the intermediate variables we no
longer need:

``` r
iris %>% select(Species, Sepal.Length) %>%  group_by(Species) %>%
  mutate(sp.Mean = mean(Sepal.Length),
         sp.SD = sd(Sepal.Length),
         Zstand.Sepal.Length = (Sepal.Length - sp.Mean)/sp.SD) %>% select(-c(sp.Mean, sp.SD))
```

    ## # A tibble: 150 x 3
    ## # Groups:   Species [3]
    ##    Species Sepal.Length Zstand.Sepal.Length
    ##    <fct>          <dbl>               <dbl>
    ##  1 setosa           5.1              0.267 
    ##  2 setosa           4.9             -0.301 
    ##  3 setosa           4.7             -0.868 
    ##  4 setosa           4.6             -1.15  
    ##  5 setosa           5               -0.0170
    ##  6 setosa           5.4              1.12  
    ##  7 setosa           4.6             -1.15  
    ##  8 setosa           5               -0.0170
    ##  9 setosa           4.4             -1.72  
    ## 10 setosa           4.9             -0.301 
    ## # ... with 140 more rows
…
